thin-film-analysis/PDMS/Transmitance and RPM/19-09-24 PDMS/RPM/PDMS RPM 6.CSV

Record Length,2.500000e+03,,  -0.087800000000,   0.03200,
Sample Interval,1.000000e-04,,  -0.087700000000,   0.03200,
Trigger Point,8.780000000000e+02,,  -0.087600000000,   0.03200,
,,,  -0.087500000000,   0.03200,
,,,  -0.087400000000,   0.05600,
,,,  -0.087300000000,   0.03200,
Source,CH1,,  -0.087200000000,   0.03200,
Vertical Units,V,,  -0.087100000000,   0.04800,
Vertical Scale,2.000000e-01,,  -0.087000000000,   0.00800,
Vertical Offset,-8.000000e-03,,  -0.086900000000,   0.03200,
Horizontal Units,s,,  -0.086800000000,   0.03200,
Horizontal Scale,2.500000e-02,,  -0.086700000000,   0.03200,
Pt Fmt,Y,,  -0.086600000000,   0.03200,
Yzero,0.000000e+00,,  -0.086500000000,   0.03200,
Probe Atten,1.000000e+01,,  -0.086400000000,   0.03200,
Model Number,TDS1012C-EDU,,  -0.086300000000,   0.03200,
Serial Number,C010778,,  -0.086200000000,   0.03200,
Firmware Version,FV:v25.04,,  -0.086100000000,   0.03200,
,,,-00.086000000000,   0.02400,
,,,-00.085900000000,   0.02400,
,,,-00.085800000000,   0.03200,
,,,-00.085700000000,   0.03200,
,,,-00.085600000000,   0.03200,
,,,-00.085500000000,   0.04000,
,,,-00.085400000000,   0.03200,
,,,-00.085300000000,   0.04000,
,,,-00.085200000000,   0.03200,
,,,-00.085100000000,   0.03200,
,,,-00.085000000000,   0.03200,
,,,-00.084900000000,   0.02400,
,,,-00.084800000000,   0.03200,
,,,-00.084700000000,   0.03200,
,,,-00.084600000000,   0.02400,
,,,-00.084500000000,   0.02400,
,,,-00.084400000000,   0.03200,
,,,-00.084300000000,   0.02400,
,,,-00.084200000000,   0.03200,
,,,-00.084100000000,   0.03200,
,,,-00.084000000000,   0.04000,
,,,-00.083900000000,   0.02400,
,,,-00.083800000000,   0.03200,
,,,-00.083700000000,   0.03200,
,,,-00.083600000000,   0.01600,
,,,-00.083500000000,   0.02400,
,,,-00.083400000000,   0.03200,
,,,-00.083300000000,   0.03200,
,,,-00.083200000000,   0.02400,
,,,-00.083100000000,   0.02400,
,,,-00.083000000000,   0.03200,
,,,-00.082900000000,   0.03200,
,,,-00.082800000000,   0.00800,
,,,-00.082700000000,   0.01600,
,,,-00.082600000000,   0.03200,
,,,-00.082500000000,   0.03200,
,,,-00.082400000000,   0.02400,
,,,-00.082300000000,   0.03200,
,,,-00.082200000000,   0.03200,
,,,-00.082100000000,   0.04800,
,,,-00.082000000000,   0.03200,
,,,-00.081900000000,   0.03200,
,,,-00.081800000000,   0.03200,
,,,-00.081700000000,   0.01600,
,,,-00.081600000000,   0.03200,
,,,-00.081500000000,   0.04000,
,,,-00.081400000000,   0.03200,
,,,-00.081300000000,   0.00800,
,,,-00.081200000000,   0.03200,
,,,-00.081100000000,   0.02400,
,,,-00.081000000000,   0.03200,
,,,-00.080900000000,   0.04000,
,,,-00.080800000000,   0.03200,
,,,-00.080700000000,   0.03200,
,,,-00.080600000000,   0.05600,
,,,-00.080500000000,   0.03200,
,,,-00.080400000000,   0.04000,
,,,-00.080300000000,   0.04000,
,,,-00.080200000000,   0.02400,
,,,-00.080100000000,   0.04000,
,,,-00.080000000000,   0.04000,
,,,-00.079900000000,   0.03200,
,,,-00.079800000000,   0.03200,
,,,-00.079700000000,   0.03200,
,,,-00.079600000000,   0.03200,
,,,-00.079500000000,   0.03200,
,,,-00.079400000000,   0.05600,
,,,-00.079300000000,   0.04000,
,,,-00.079200000000,   0.03200,
,,,-00.079100000000,   0.04000,
,,,-00.079000000000,   0.03200,
,,,-00.078900000000,   0.01600,
,,,-00.078800000000,   0.03200,
,,,-00.078700000000,   0.04800,
,,,-00.078600000000,   0.03200,
,,,-00.078500000000,   0.03200,
,,,-00.078400000000,   0.03200,
,,,-00.078300000000,   0.04000,
,,,-00.078200000000,   0.04000,
,,,-00.078100000000,   0.03200,
,,,-00.078000000000,   0.04000,
,,,-00.077900000000,   0.04800,
,,,-00.077800000000,   0.04000,
,,,-00.077700000000,   0.03200,
,,,-00.077600000000,   0.04800,
,,,-00.077500000000,   0.03200,
,,,-00.077400000000,   0.03200,
,,,-00.077300000000,   0.05600,
,,,-00.077200000000,   0.04000,
,,,-00.077100000000,   0.03200,
,,,-00.077000000000,   0.04000,
,,,-00.076900000000,   0.05600,
,,,-00.076800000000,   0.03200,
,,,-00.076700000000,   0.04000,
,,,-00.076600000000,   0.04000,
,,,-00.076500000000,   0.04000,
,,,-00.076400000000,   0.04000,
,,,-00.076300000000,   0.04000,
,,,-00.076200000000,   0.05600,
,,,-00.076100000000,   0.03200,
,,,-00.076000000000,   0.03200,
,,,-00.075900000000,   0.03200,
,,,-00.075800000000,   0.01600,
,,,-00.075700000000,   0.01600,
,,,-00.075600000000,   0.01600,
,,,-00.075500000000,  -0.00800,
,,,-00.075400000000,   0.02400,
,,,-00.075300000000,   0.08000,
,,,-00.075200000000,   0.16000,
,,,-00.075100000000,   0.24000,
,,,-00.075000000000,   0.36000,
,,,-00.074900000000,   0.43200,
,,,-00.074800000000,   0.44000,
,,,-00.074700000000,   0.45600,
,,,-00.074600000000,   0.45600,
,,,-00.074500000000,   0.44800,
,,,-00.074400000000,   0.45600,
,,,-00.074300000000,   0.49600,
,,,-00.074200000000,   0.52800,
,,,-00.074100000000,   0.52000,
,,,-00.074000000000,   0.54400,
,,,-00.073900000000,   0.52000,
,,,-00.073800000000,   0.53600,
,,,-00.073700000000,   0.54400,
,,,-00.073600000000,   0.55200,
,,,-00.073500000000,   0.54400,
,,,-00.073400000000,   0.56000,
,,,-00.073300000000,   0.50400,
,,,-00.073200000000,   0.49600,
,,,-00.073100000000,   0.53600,
,,,-00.073000000000,   0.54400,
,,,-00.072900000000,   0.56800,
,,,-00.072800000000,   0.58400,
,,,-00.072700000000,   0.56000,
,,,-00.072600000000,   0.57600,
,,,-00.072500000000,   0.60000,
,,,-00.072400000000,   0.56800,
,,,-00.072300000000,   0.56000,
,,,-00.072200000000,   0.56800,
,,,-00.072100000000,   0.56800,
,,,-00.072000000000,   0.56800,
,,,-00.071900000000,   0.53600,
,,,-00.071800000000,   0.51200,
,,,-00.071700000000,   0.52000,
,,,-00.071600000000,   0.50400,
,,,-00.071500000000,   0.49600,
,,,-00.071400000000,   0.44800,
,,,-00.071300000000,   0.40000,
,,,-00.071200000000,   0.31200,
,,,-00.071100000000,   0.20000,
,,,-00.071000000000,   0.12800,
,,,-00.070900000000,   0.10400,
,,,-00.070800000000,   0.08000,
,,,-00.070700000000,   0.05600,
,,,-00.070600000000,   0.04800,
,,,-00.070500000000,   0.04000,
,,,-00.070400000000,   0.05600,
,,,-00.070300000000,   0.04000,
,,,-00.070200000000,   0.04000,
,,,-00.070100000000,   0.04000,
,,,-00.070000000000,   0.03200,
,,,-00.069900000000,   0.03200,
,,,-00.069800000000,   0.03200,
,,,-00.069700000000,   0.05600,
,,,-00.069600000000,   0.02400,
,,,-00.069500000000,   0.04000,
,,,-00.069400000000,   0.03200,
,,,-00.069300000000,   0.02400,
,,,-00.069200000000,   0.03200,
,,,-00.069100000000,   0.03200,
,,,-00.069000000000,   0.04000,
,,,-00.068900000000,   0.03200,
,,,-00.068800000000,   0.03200,
,,,-00.068700000000,   0.02400,
,,,-00.068600000000,   0.03200,
,,,-00.068500000000,   0.03200,
,,,-00.068400000000,   0.04000,
,,,-00.068300000000,   0.04000,
,,,-00.068200000000,   0.03200,
,,,-00.068100000000,   0.03200,
,,,-00.068000000000,   0.03200,
,,,-00.067900000000,   0.03200,
,,,-00.067800000000,   0.04000,
,,,-00.067700000000,   0.03200,
,,,-00.067600000000,   0.04800,
,,,-00.067500000000,   0.03200,
,,,-00.067400000000,   0.04800,
,,,-00.067300000000,   0.04000,
,,,-00.067200000000,   0.02400,
,,,-00.067100000000,   0.02400,
,,,-00.067000000000,   0.02400,
,,,-00.066900000000,   0.03200,
,,,-00.066800000000,   0.04000,
,,,-00.066700000000,   0.03200,
,,,-00.066600000000,   0.03200,
,,,-00.066500000000,   0.03200,
,,,-00.066400000000,   0.04000,
,,,-00.066300000000,   0.03200,
,,,-00.066200000000,   0.04000,
,,,-00.066100000000,   0.03200,
,,,-00.066000000000,   0.04000,
,,,-00.065900000000,   0.02400,
,,,-00.065800000000,   0.04800,
,,,-00.065700000000,   0.04000,
,,,-00.065600000000,   0.04000,
,,,-00.065500000000,   0.05600,
,,,-00.065400000000,   0.04000,
,,,-00.065300000000,   0.04000,
,,,-00.065200000000,   0.04000,
,,,-00.065100000000,   0.03200,
,,,-00.065000000000,   0.04000,
,,,-00.064900000000,   0.04000,
,,,-00.064800000000,   0.03200,
,,,-00.064700000000,   0.04000,
,,,-00.064600000000,   0.03200,
,,,-00.064500000000,   0.03200,
,,,-00.064400000000,   0.03200,
,,,-00.064300000000,   0.03200,
,,,-00.064200000000,   0.04000,
,,,-00.064100000000,   0.04000,
,,,-00.064000000000,   0.03200,
,,,-00.063900000000,   0.04000,
,,,-00.063800000000,   0.02400,
,,,-00.063700000000,   0.02400,
,,,-00.063600000000,   0.03200,
,,,-00.063500000000,   0.02400,
,,,-00.063400000000,   0.03200,
,,,-00.063300000000,   0.04000,
,,,-00.063200000000,   0.02400,
,,,-00.063100000000,   0.03200,
,,,-00.063000000000,   0.04000,
,,,-00.062900000000,   0.03200,
,,,-00.062800000000,   0.04000,
,,,-00.062700000000,   0.03200,
,,,-00.062600000000,   0.02400,
,,,-00.062500000000,   0.03200,
,,,-00.062400000000,   0.03200,
,,,-00.062300000000,   0.03200,
,,,-00.062200000000,   0.01600,
,,,-00.062100000000,   0.03200,
,,,-00.062000000000,   0.03200,
,,,-00.061900000000,   0.03200,
,,,-00.061800000000,   0.03200,
,,,-00.061700000000,   0.03200,
,,,-00.061600000000,   0.03200,
,,,-00.061500000000,   0.03200,
,,,-00.061400000000,   0.03200,
,,,-00.061300000000,   0.03200,
,,,-00.061200000000,   0.04000,
,,,-00.061100000000,   0.03200,
,,,-00.061000000000,   0.03200,
,,,-00.060900000000,   0.03200,
,,,-00.060800000000,   0.04000,
,,,-00.060700000000,   0.01600,
,,,-00.060600000000,   0.03200,
,,,-00.060500000000,   0.03200,
,,,-00.060400000000,   0.04000,
,,,-00.060300000000,   0.05600,
,,,-00.060200000000,   0.03200,
,,,-00.060100000000,   0.03200,
,,,-00.060000000000,   0.02400,
,,,-00.059900000000,   0.04800,
,,,-00.059800000000,   0.02400,
,,,-00.059700000000,   0.03200,
,,,-00.059600000000,   0.01600,
,,,-00.059500000000,   0.03200,
,,,-00.059400000000,   0.04000,
,,,-00.059300000000,   0.03200,
,,,-00.059200000000,   0.03200,
,,,-00.059100000000,   0.03200,
,,,-00.059000000000,   0.03200,
,,,-00.058900000000,   0.02400,
,,,-00.058800000000,   0.03200,
,,,-00.058700000000,   0.03200,
,,,-00.058600000000,   0.04000,
,,,-00.058500000000,   0.03200,
,,,-00.058400000000,   0.03200,
,,,-00.058300000000,   0.04800,
,,,-00.058200000000,   0.03200,
,,,-00.058100000000,   0.04000,
,,,-00.058000000000,   0.02400,
,,,-00.057900000000,   0.03200,
,,,-00.057800000000,   0.02400,
,,,-00.057700000000,   0.04000,
,,,-00.057600000000,   0.03200,
,,,-00.057500000000,   0.03200,
,,,-00.057400000000,   0.02400,
,,,-00.057300000000,   0.03200,
,,,-00.057200000000,   0.03200,
,,,-00.057100000000,   0.01600,
,,,-00.057000000000,   0.03200,
,,,-00.056900000000,   0.02400,
,,,-00.056800000000,   0.03200,
,,,-00.056700000000,   0.04000,
,,,-00.056600000000,   0.03200,
,,,-00.056500000000,   0.03200,
,,,-00.056400000000,   0.03200,
,,,-00.056300000000,   0.03200,
,,,-00.056200000000,   0.02400,
,,,-00.056100000000,   0.02400,
,,,-00.056000000000,   0.03200,
,,,-00.055900000000,   0.03200,
,,,-00.055800000000,   0.01600,
,,,-00.055700000000,   0.03200,
,,,-00.055600000000,   0.03200,
,,,-00.055500000000,   0.02400,
,,,-00.055400000000,   0.01600,
,,,-00.055300000000,   0.00800,
,,,-00.055200000000,   0.02400,
,,,-00.055100000000,   0.03200,
,,,-00.055000000000,   0.02400,
,,,-00.054900000000,   0.01600,
,,,-00.054800000000,   0.01600,
,,,-00.054700000000,   0.02400,
,,,-00.054600000000,   0.03200,
,,,-00.054500000000,   0.02400,
,,,-00.054400000000,   0.03200,
,,,-00.054300000000,   0.03200,
,,,-00.054200000000,   0.03200,
,,,-00.054100000000,   0.03200,
,,,-00.054000000000,   0.03200,
,,,-00.053900000000,   0.03200,
,,,-00.053800000000,   0.02400,
,,,-00.053700000000,   0.03200,
,,,-00.053600000000,   0.03200,
,,,-00.053500000000,   0.04000,
,,,-00.053400000000,   0.04000,
,,,-00.053300000000,   0.02400,
,,,-00.053200000000,   0.04000,
,,,-00.053100000000,   0.01600,
,,,-00.053000000000,   0.03200,
,,,-00.052900000000,   0.03200,
,,,-00.052800000000,   0.03200,
,,,-00.052700000000,   0.03200,
,,,-00.052600000000,   0.04800,
,,,-00.052500000000,   0.03200,
,,,-00.052400000000,   0.03200,
,,,-00.052300000000,   0.04000,
,,,-00.052200000000,   0.04000,
,,,-00.052100000000,   0.04000,
,,,-00.052000000000,   0.04000,
,,,-00.051900000000,   0.02400,
,,,-00.051800000000,   0.04000,
,,,-00.051700000000,   0.02400,
,,,-00.051600000000,   0.03200,
,,,-00.051500000000,   0.04000,
,,,-00.051400000000,   0.03200,
,,,-00.051300000000,   0.04000,
,,,-00.051200000000,   0.04800,
,,,-00.051100000000,   0.03200,
,,,-00.051000000000,   0.03200,
,,,-00.050900000000,   0.03200,
,,,-00.050800000000,   0.03200,
,,,-00.050700000000,   0.04000,
,,,-00.050600000000,   0.03200,
,,,-00.050500000000,   0.04800,
,,,-00.050400000000,   0.03200,
,,,-00.050300000000,   0.04800,
,,,-00.050200000000,   0.02400,
,,,-00.050100000000,   0.05600,
,,,-00.050000000000,   0.02400,
,,,-00.049900000000,   0.03200,
,,,-00.049800000000,   0.03200,
,,,-00.049700000000,   0.02400,
,,,-00.049600000000,   0.03200,
,,,-00.049500000000,   0.03200,
,,,-00.049400000000,   0.03200,
,,,-00.049300000000,   0.04000,
,,,-00.049200000000,   0.04000,
,,,-00.049100000000,   0.04000,
,,,-00.049000000000,   0.03200,
,,,-00.048900000000,   0.03200,
,,,-00.048800000000,   0.03200,
,,,-00.048700000000,   0.02400,
,,,-00.048600000000,   0.00800,
,,,-00.048500000000,   0.01600,
,,,-00.048400000000,   0.01600,
,,,-00.048300000000,   0.02400,
,,,-00.048200000000,   0.02400,
,,,-00.048100000000,   0.04800,
,,,-00.048000000000,   0.12000,
,,,-00.047900000000,   0.20800,
,,,-00.047800000000,   0.29600,
,,,-00.047700000000,   0.37600,
,,,-00.047600000000,   0.44000,
,,,-00.047500000000,   0.47200,
,,,-00.047400000000,   0.45600,
,,,-00.047300000000,   0.45600,
,,,-00.047200000000,   0.46400,
,,,-00.047100000000,   0.47200,
,,,-00.047000000000,   0.51200,
,,,-00.046900000000,   0.50400,
,,,-00.046800000000,   0.54400,
,,,-00.046700000000,   0.54400,
,,,-00.046600000000,   0.52000,
,,,-00.046500000000,   0.55200,
,,,-00.046400000000,   0.56000,
,,,-00.046300000000,   0.54400,
,,,-00.046200000000,   0.56000,
,,,-00.046100000000,   0.52800,
,,,-00.046000000000,   0.51200,
,,,-00.045900000000,   0.49600,
,,,-00.045800000000,   0.52800,
,,,-00.045700000000,   0.55200,
,,,-00.045600000000,   0.57600,
,,,-00.045500000000,   0.57600,
,,,-00.045400000000,   0.56000,
,,,-00.045300000000,   0.58400,
,,,-00.045200000000,   0.60800,
,,,-00.045100000000,   0.57600,
,,,-00.045000000000,   0.56000,
,,,-00.044900000000,   0.56800,
,,,-00.044800000000,   0.56800,
,,,-00.044700000000,   0.55200,
,,,-00.044600000000,   0.50400,
,,,-00.044500000000,   0.51200,
,,,-00.044400000000,   0.51200,
,,,-00.044300000000,   0.50400,
,,,-00.044200000000,   0.48000,
,,,-00.044100000000,   0.43200,
,,,-00.044000000000,   0.36800,
,,,-00.043900000000,   0.24800,
,,,-00.043800000000,   0.17600,
,,,-00.043700000000,   0.10400,
,,,-00.043600000000,   0.08000,
,,,-00.043500000000,   0.06400,
,,,-00.043400000000,   0.04800,
,,,-00.043300000000,   0.04800,
,,,-00.043200000000,   0.02400,
,,,-00.043100000000,   0.04000,
,,,-00.043000000000,   0.04000,
,,,-00.042900000000,   0.04000,
,,,-00.042800000000,   0.05600,
,,,-00.042700000000,   0.03200,
,,,-00.042600000000,   0.04000,
,,,-00.042500000000,   0.03200,
,,,-00.042400000000,   0.04800,
,,,-00.042300000000,   0.04000,
,,,-00.042200000000,   0.04000,
,,,-00.042100000000,   0.05600,
,,,-00.042000000000,   0.03200,
,,,-00.041900000000,   0.03200,
,,,-00.041800000000,   0.02400,
,,,-00.041700000000,   0.02400,
,,,-00.041600000000,   0.03200,
,,,-00.041500000000,   0.02400,
,,,-00.041400000000,   0.03200,
,,,-00.041300000000,   0.03200,
,,,-00.041200000000,   0.04000,
,,,-00.041100000000,   0.04000,
,,,-00.041000000000,   0.04000,
,,,-00.040900000000,   0.03200,
,,,-00.040800000000,   0.02400,
,,,-00.040700000000,   0.03200,
,,,-00.040600000000,   0.03200,
,,,-00.040500000000,   0.03200,
,,,-00.040400000000,   0.03200,
,,,-00.040300000000,   0.02400,
,,,-00.040200000000,   0.03200,
,,,-00.040100000000,   0.03200,
,,,-00.040000000000,   0.03200,
,,,-00.039900000000,   0.04800,
,,,-00.039800000000,   0.04000,
,,,-00.039700000000,   0.03200,
,,,-00.039600000000,   0.03200,
,,,-00.039500000000,   0.04800,
,,,-00.039400000000,   0.04000,
,,,-00.039300000000,   0.04000,
,,,-00.039200000000,   0.03200,
,,,-00.039100000000,   0.03200,
,,,-00.039000000000,   0.02400,
,,,-00.038900000000,   0.02400,
,,,-00.038800000000,   0.05600,
,,,-00.038700000000,   0.04000,
,,,-00.038600000000,   0.04800,
,,,-00.038500000000,   0.04000,
,,,-00.038400000000,   0.05600,
,,,-00.038300000000,   0.04800,
,,,-00.038200000000,   0.04800,
,,,-00.038100000000,   0.03200,
,,,-00.038000000000,   0.02400,
,,,-00.037900000000,   0.03200,
,,,-00.037800000000,   0.03200,
,,,-00.037700000000,   0.03200,
,,,-00.037600000000,   0.04000,
,,,-00.037500000000,   0.03200,
,,,-00.037400000000,   0.03200,
,,,-00.037300000000,   0.02400,
,,,-00.037200000000,   0.03200,
,,,-00.037100000000,   0.03200,
,,,-00.037000000000,   0.03200,
,,,-00.036900000000,   0.04000,
,,,-00.036800000000,   0.02400,
,,,-00.036700000000,   0.03200,
,,,-00.036600000000,   0.03200,
,,,-00.036500000000,   0.01600,
,,,-00.036400000000,   0.03200,
,,,-00.036300000000,   0.04000,
,,,-00.036200000000,   0.03200,
,,,-00.036100000000,   0.02400,
,,,-00.036000000000,   0.03200,
,,,-00.035900000000,   0.03200,
,,,-00.035800000000,   0.04000,
,,,-00.035700000000,   0.03200,
,,,-00.035600000000,   0.03200,
,,,-00.035500000000,   0.03200,
,,,-00.035400000000,   0.02400,
,,,-00.035300000000,   0.03200,
,,,-00.035200000000,   0.03200,
,,,-00.035100000000,   0.03200,
,,,-00.035000000000,   0.04000,
,,,-00.034900000000,   0.02400,
,,,-00.034800000000,   0.03200,
,,,-00.034700000000,   0.01600,
,,,-00.034600000000,   0.04000,
,,,-00.034500000000,   0.03200,
,,,-00.034400000000,   0.03200,
,,,-00.034300000000,   0.02400,
,,,-00.034200000000,   0.03200,
,,,-00.034100000000,   0.03200,
,,,-00.034000000000,   0.03200,
,,,-00.033900000000,   0.03200,
,,,-00.033800000000,   0.03200,
,,,-00.033700000000,   0.03200,
,,,-00.033600000000,   0.02400,
,,,-00.033500000000,   0.04000,
,,,-00.033400000000,   0.04000,
,,,-00.033300000000,   0.02400,
,,,-00.033200000000,   0.02400,
,,,-00.033100000000,   0.04800,
,,,-00.033000000000,   0.02400,
,,,-00.032900000000,   0.04800,
,,,-00.032800000000,   0.02400,
,,,-00.032700000000,   0.03200,
,,,-00.032600000000,   0.03200,
,,,-00.032500000000,   0.02400,
,,,-00.032400000000,   0.03200,
,,,-00.032300000000,   0.04000,
,,,-00.032200000000,   0.02400,
,,,-00.032100000000,   0.03200,
,,,-00.032000000000,   0.04800,
,,,-00.031900000000,   0.04000,
,,,-00.031800000000,   0.04000,
,,,-00.031700000000,   0.03200,
,,,-00.031600000000,   0.04000,
,,,-00.031500000000,   0.04000,
,,,-00.031400000000,   0.03200,
,,,-00.031300000000,   0.03200,
,,,-00.031200000000,   0.03200,
,,,-00.031100000000,   0.02400,
,,,-00.031000000000,   0.03200,
,,,-00.030900000000,   0.03200,
,,,-00.030800000000,   0.03200,
,,,-00.030700000000,   0.04000,
,,,-00.030600000000,   0.03200,
,,,-00.030500000000,   0.03200,
,,,-00.030400000000,   0.04800,
,,,-00.030300000000,   0.03200,
,,,-00.030200000000,   0.04000,
,,,-00.030100000000,   0.04000,
,,,-00.030000000000,   0.02400,
,,,-00.029900000000,   0.03200,
,,,-00.029800000000,   0.02400,
,,,-00.029700000000,   0.05600,
,,,-00.029600000000,   0.02400,
,,,-00.029500000000,   0.02400,
,,,-00.029400000000,   0.02400,
,,,-00.029300000000,   0.03200,
,,,-00.029200000000,   0.02400,
,,,-00.029100000000,   0.02400,
,,,-00.029000000000,   0.04000,
,,,-00.028900000000,   0.01600,
,,,-00.028800000000,   0.03200,
,,,-00.028700000000,   0.04000,
,,,-00.028600000000,   0.03200,
,,,-00.028500000000,   0.03200,
,,,-00.028400000000,   0.02400,
,,,-00.028300000000,   0.02400,
,,,-00.028200000000,   0.03200,
,,,-00.028100000000,   0.02400,
,,,-00.028000000000,   0.02400,
,,,-00.027900000000,   0.02400,
,,,-00.027800000000,   0.01600,
,,,-00.027700000000,   0.01600,
,,,-00.027600000000,   0.03200,
,,,-00.027500000000,   0.02400,
,,,-00.027400000000,   0.03200,
,,,-00.027300000000,   0.03200,
,,,-00.027200000000,   0.03200,
,,,-00.027100000000,   0.03200,
,,,-00.027000000000,   0.03200,
,,,-00.026900000000,   0.04000,
,,,-00.026800000000,   0.04800,
,,,-00.026700000000,   0.03200,
,,,-00.026600000000,   0.04000,
,,,-00.026500000000,   0.03200,
