thin-film-analysis/PDMS/Transmitance and RPM/11-09-24 PDMS/RPM/PDMS RPM 7.CSV

Record Length,2.500000e+03,,  -0.254000000000,   0.01600,
Sample Interval,2.000000e-04,,  -0.253800000000,   0.01200,
Trigger Point,1.270000000000e+03,,  -0.253600000000,   0.00800,
,,,  -0.253400000000,   0.01200,
,,,  -0.253200000000,   0.01200,
,,,  -0.253000000000,   0.00800,
Source,CH1,,  -0.252800000000,   0.01200,
Vertical Units,V,,  -0.252600000000,   0.01600,
Vertical Scale,1.000000e-01,,  -0.252400000000,   0.00400,
Vertical Offset,-4.000000e-03,,  -0.252200000000,   0.00400,
Horizontal Units,s,,  -0.252000000000,   0.01600,
Horizontal Scale,5.000000e-02,,  -0.251800000000,   0.01200,
Pt Fmt,Y,,  -0.251600000000,   0.01200,
Yzero,0.000000e+00,,  -0.251400000000,   0.00800,
Probe Atten,1.000000e+01,,  -0.251200000000,   0.00400,
Model Number,TDS1012C-EDU,,  -0.251000000000,   0.01600,
Serial Number,C010778,,  -0.250800000000,   0.01600,
Firmware Version,FV:v25.04,,  -0.250600000000,   0.00800,
,,,-00.250400000000,   0.01600,
,,,-00.250200000000,   0.01200,
,,,-00.250000000000,   0.01200,
,,,-00.249800000000,   0.01200,
,,,-00.249600000000,   0.01600,
,,,-00.249400000000,   0.00400,
,,,-00.249200000000,   0.00800,
,,,-00.249000000000,   0.00400,
,,,-00.248800000000,   0.01600,
,,,-00.248600000000,   0.00800,
,,,-00.248400000000,   0.02000,
,,,-00.248200000000,   0.01200,
,,,-00.248000000000,   0.01200,
,,,-00.247800000000,   0.01200,
,,,-00.247600000000,   0.01600,
,,,-00.247400000000,   0.01600,
,,,-00.247200000000,   0.01600,
,,,-00.247000000000,   0.01200,
,,,-00.246800000000,   0.01600,
,,,-00.246600000000,   0.00400,
,,,-00.246400000000,   0.01200,
,,,-00.246200000000,   0.01200,
,,,-00.246000000000,   0.00400,
,,,-00.245800000000,   0.01200,
,,,-00.245600000000,   0.00800,
,,,-00.245400000000,   0.00800,
,,,-00.245200000000,   0.01600,
,,,-00.245000000000,   0.00800,
,,,-00.244800000000,   0.00800,
,,,-00.244600000000,   0.01200,
,,,-00.244400000000,   0.01600,
,,,-00.244200000000,   0.01200,
,,,-00.244000000000,   0.01600,
,,,-00.243800000000,   0.01600,
,,,-00.243600000000,   0.02000,
,,,-00.243400000000,   0.02000,
,,,-00.243200000000,   0.01600,
,,,-00.243000000000,   0.00800,
,,,-00.242800000000,   0.01200,
,,,-00.242600000000,   0.01200,
,,,-00.242400000000,   0.02000,
,,,-00.242200000000,   0.00800,
,,,-00.242000000000,   0.00400,
,,,-00.241800000000,   0.01200,
,,,-00.241600000000,   0.00400,
,,,-00.241400000000,   0.00400,
,,,-00.241200000000,   0.02000,
,,,-00.241000000000,   0.00400,
,,,-00.240800000000,   0.01200,
,,,-00.240600000000,   0.01600,
,,,-00.240400000000,   0.00800,
,,,-00.240200000000,   0.01200,
,,,-00.240000000000,   0.00400,
,,,-00.239800000000,   0.01200,
,,,-00.239600000000,   0.01600,
,,,-00.239400000000,   0.00800,
,,,-00.239200000000,   0.00800,
,,,-00.239000000000,   0.01200,
,,,-00.238800000000,   0.01600,
,,,-00.238600000000,   0.01200,
,,,-00.238400000000,   0.01200,
,,,-00.238200000000,   0.01200,
,,,-00.238000000000,   0.01200,
,,,-00.237800000000,   0.01600,
,,,-00.237600000000,   0.00800,
,,,-00.237400000000,   0.01600,
,,,-00.237200000000,   0.01600,
,,,-00.237000000000,   0.01600,
,,,-00.236800000000,   0.00400,
,,,-00.236600000000,   0.01600,
,,,-00.236400000000,   0.01200,
,,,-00.236200000000,   0.01200,
,,,-00.236000000000,   0.00800,
,,,-00.235800000000,   0.01600,
,,,-00.235600000000,   0.01200,
,,,-00.235400000000,   0.02000,
,,,-00.235200000000,   0.00800,
,,,-00.235000000000,   0.00800,
,,,-00.234800000000,   0.01200,
,,,-00.234600000000,   0.01600,
,,,-00.234400000000,   0.00800,
,,,-00.234200000000,   0.00400,
,,,-00.234000000000,   0.01600,
,,,-00.233800000000,   0.01600,
,,,-00.233600000000,   0.04400,
,,,-00.233400000000,   0.13200,
,,,-00.233200000000,   0.17600,
,,,-00.233000000000,   0.16400,
,,,-00.232800000000,   0.22000,
,,,-00.232600000000,   0.19600,
,,,-00.232400000000,   0.20400,
,,,-00.232200000000,   0.16800,
,,,-00.232000000000,   0.16800,
,,,-00.231800000000,   0.15600,
,,,-00.231600000000,   0.16000,
,,,-00.231400000000,   0.06800,
,,,-00.231200000000,   0.02000,
,,,-00.231000000000,   0.01200,
,,,-00.230800000000,   0.01600,
,,,-00.230600000000,   0.00800,
,,,-00.230400000000,   0.00800,
,,,-00.230200000000,   0.00800,
,,,-00.230000000000,   0.01600,
,,,-00.229800000000,   0.01200,
,,,-00.229600000000,   0.00800,
,,,-00.229400000000,   0.01200,
,,,-00.229200000000,   0.00800,
,,,-00.229000000000,   0.00800,
,,,-00.228800000000,   0.00400,
,,,-00.228600000000,   0.00800,
,,,-00.228400000000,   0.00800,
,,,-00.228200000000,   0.01200,
,,,-00.228000000000,   0.01200,
,,,-00.227800000000,   0.01200,
,,,-00.227600000000,   0.01600,
,,,-00.227400000000,   0.01600,
,,,-00.227200000000,   0.01200,
,,,-00.227000000000,   0.02000,
,,,-00.226800000000,   0.01600,
,,,-00.226600000000,   0.01600,
,,,-00.226400000000,   0.00800,
,,,-00.226200000000,   0.00800,
,,,-00.226000000000,   0.02000,
,,,-00.225800000000,   0.01200,
,,,-00.225600000000,   0.00800,
,,,-00.225400000000,   0.00800,
,,,-00.225200000000,   0.01200,
,,,-00.225000000000,   0.00400,
,,,-00.224800000000,   0.01200,
,,,-00.224600000000,   0.01600,
,,,-00.224400000000,   0.00800,
,,,-00.224200000000,   0.02000,
,,,-00.224000000000,   0.00800,
,,,-00.223800000000,   0.00800,
,,,-00.223600000000,   0.01200,
,,,-00.223400000000,   0.01600,
,,,-00.223200000000,   0.00800,
,,,-00.223000000000,   0.01200,
,,,-00.222800000000,   0.00800,
,,,-00.222600000000,   0.01200,
,,,-00.222400000000,   0.00400,
,,,-00.222200000000,   0.00400,
,,,-00.222000000000,   0.00800,
,,,-00.221800000000,   0.00800,
,,,-00.221600000000,   0.01600,
,,,-00.221400000000,   0.00400,
,,,-00.221200000000,   0.00400,
,,,-00.221000000000,   0.00800,
,,,-00.220800000000,   0.01600,
,,,-00.220600000000,   0.00800,
,,,-00.220400000000,   0.01600,
,,,-00.220200000000,   0.01600,
,,,-00.220000000000,   0.01200,
,,,-00.219800000000,   0.00800,
,,,-00.219600000000,   0.00400,
,,,-00.219400000000,   0.00800,
,,,-00.219200000000,   0.01200,
,,,-00.219000000000,   0.00800,
,,,-00.218800000000,   0.01600,
,,,-00.218600000000,   0.01200,
,,,-00.218400000000,   0.01600,
,,,-00.218200000000,   0.00800,
,,,-00.218000000000,   0.02000,
,,,-00.217800000000,   0.01200,
,,,-00.217600000000,   0.01200,
,,,-00.217400000000,   0.01600,
,,,-00.217200000000,   0.01600,
,,,-00.217000000000,   0.01200,
,,,-00.216800000000,   0.01600,
,,,-00.216600000000,   0.01200,
,,,-00.216400000000,   0.01200,
,,,-00.216200000000,   0.00800,
,,,-00.216000000000,   0.01200,
,,,-00.215800000000,   0.00800,
,,,-00.215600000000,   0.00800,
,,,-00.215400000000,   0.00800,
,,,-00.215200000000,   0.00800,
,,,-00.215000000000,   0.00800,
,,,-00.214800000000,   0.01200,
,,,-00.214600000000,   0.01600,
,,,-00.214400000000,   0.01200,
,,,-00.214200000000,   0.00800,
,,,-00.214000000000,   0.00800,
,,,-00.213800000000,   0.01200,
,,,-00.213600000000,   0.01200,
,,,-00.213400000000,   0.02000,
,,,-00.213200000000,   0.00800,
,,,-00.213000000000,   0.01200,
,,,-00.212800000000,   0.01600,
,,,-00.212600000000,   0.02000,
,,,-00.212400000000,   0.01600,
,,,-00.212200000000,   0.00800,
,,,-00.212000000000,   0.00800,
,,,-00.211800000000,   0.00800,
,,,-00.211600000000,   0.01600,
,,,-00.211400000000,   0.01600,
,,,-00.211200000000,   0.01200,
,,,-00.211000000000,   0.00800,
,,,-00.210800000000,   0.00400,
,,,-00.210600000000,   0.00800,
,,,-00.210400000000,   0.01600,
,,,-00.210200000000,   0.00400,
,,,-00.210000000000,   0.01200,
,,,-00.209800000000,   0.00800,
,,,-00.209600000000,   0.01200,
,,,-00.209400000000,   0.01600,
,,,-00.209200000000,   0.01200,
,,,-00.209000000000,   0.01200,
,,,-00.208800000000,   0.01200,
,,,-00.208600000000,   0.01600,
,,,-00.208400000000,   0.01600,
,,,-00.208200000000,   0.01600,
,,,-00.208000000000,   0.01200,
,,,-00.207800000000,   0.01200,
,,,-00.207600000000,   0.02400,
,,,-00.207400000000,   0.01200,
,,,-00.207200000000,   0.01200,
,,,-00.207000000000,   0.01200,
,,,-00.206800000000,   0.01200,
,,,-00.206600000000,   0.00800,
,,,-00.206400000000,   0.02000,
,,,-00.206200000000,   0.01600,
,,,-00.206000000000,   0.01200,
,,,-00.205800000000,   0.00400,
,,,-00.205600000000,   0.02000,
,,,-00.205400000000,   0.01600,
,,,-00.205200000000,   0.01200,
,,,-00.205000000000,   0.01200,
,,,-00.204800000000,   0.02000,
,,,-00.204600000000,   0.02000,
,,,-00.204400000000,   0.00800,
,,,-00.204200000000,   0.01600,
,,,-00.204000000000,   0.01200,
,,,-00.203800000000,   0.00800,
,,,-00.203600000000,   0.00400,
,,,-00.203400000000,   0.01200,
,,,-00.203200000000,   0.01200,
,,,-00.203000000000,   0.01200,
,,,-00.202800000000,   0.01600,
,,,-00.202600000000,   0.01200,
,,,-00.202400000000,   0.02400,
,,,-00.202200000000,   0.01200,
,,,-00.202000000000,   0.01200,
,,,-00.201800000000,   0.01200,
,,,-00.201600000000,   0.00800,
,,,-00.201400000000,   0.00800,
,,,-00.201200000000,   0.01200,
,,,-00.201000000000,   0.00400,
,,,-00.200800000000,   0.00800,
,,,-00.200600000000,   0.01600,
,,,-00.200400000000,   0.01200,
,,,-00.200200000000,   0.01200,
,,,-00.200000000000,   0.01600,
,,,-00.199800000000,   0.01200,
,,,-00.199600000000,   0.01200,
,,,-00.199400000000,   0.01200,
,,,-00.199200000000,   0.02000,
,,,-00.199000000000,   0.01200,
,,,-00.198800000000,   0.05600,
,,,-00.198600000000,   0.14400,
,,,-00.198400000000,   0.18000,
,,,-00.198200000000,   0.16800,
,,,-00.198000000000,   0.22000,
,,,-00.197800000000,   0.18800,
,,,-00.197600000000,   0.20800,
,,,-00.197400000000,   0.16800,
,,,-00.197200000000,   0.16800,
,,,-00.197000000000,   0.16400,
,,,-00.196800000000,   0.17200,
,,,-00.196600000000,   0.07200,
,,,-00.196400000000,   0.03200,
,,,-00.196200000000,   0.02000,
,,,-00.196000000000,   0.01600,
,,,-00.195800000000,   0.00400,
,,,-00.195600000000,   0.00400,
,,,-00.195400000000,   0.01600,
,,,-00.195200000000,   0.02000,
,,,-00.195000000000,   0.00800,
,,,-00.194800000000,   0.02000,
,,,-00.194600000000,   0.01200,
,,,-00.194400000000,   0.01600,
,,,-00.194200000000,   0.01200,
,,,-00.194000000000,   0.00400,
,,,-00.193800000000,   0.00400,
,,,-00.193600000000,   0.01200,
,,,-00.193400000000,   0.01200,
,,,-00.193200000000,   0.02000,
,,,-00.193000000000,   0.01200,
,,,-00.192800000000,   0.01200,
,,,-00.192600000000,   0.01600,
,,,-00.192400000000,   0.01200,
,,,-00.192200000000,   0.00400,
,,,-00.192000000000,   0.00800,
,,,-00.191800000000,   0.01200,
,,,-00.191600000000,   0.01200,
,,,-00.191400000000,   0.00800,
,,,-00.191200000000,   0.01600,
,,,-00.191000000000,   0.01600,
,,,-00.190800000000,   0.00400,
,,,-00.190600000000,   0.02000,
,,,-00.190400000000,   0.00800,
,,,-00.190200000000,   0.01200,
,,,-00.190000000000,   0.00800,
,,,-00.189800000000,   0.00800,
,,,-00.189600000000,   0.02000,
,,,-00.189400000000,   0.00800,
,,,-00.189200000000,   0.01600,
,,,-00.189000000000,   0.01600,
,,,-00.188800000000,   0.00800,
,,,-00.188600000000,   0.00400,
,,,-00.188400000000,   0.00800,
,,,-00.188200000000,   0.01200,
,,,-00.188000000000,   0.00400,
,,,-00.187800000000,   0.01600,
,,,-00.187600000000,   0.01200,
,,,-00.187400000000,   0.01600,
,,,-00.187200000000,   0.00800,
,,,-00.187000000000,   0.00800,
,,,-00.186800000000,   0.00800,
,,,-00.186600000000,   0.01600,
,,,-00.186400000000,   0.01200,
,,,-00.186200000000,   0.00400,
,,,-00.186000000000,   0.01200,
,,,-00.185800000000,   0.02000,
,,,-00.185600000000,   0.01200,
,,,-00.185400000000,   0.01200,
,,,-00.185200000000,   0.02000,
,,,-00.185000000000,   0.01200,
,,,-00.184800000000,   0.01200,
,,,-00.184600000000,   0.00000,
,,,-00.184400000000,   0.01200,
,,,-00.184200000000,   0.00800,
,,,-00.184000000000,   0.02000,
,,,-00.183800000000,   0.00400,
,,,-00.183600000000,   0.01600,
,,,-00.183400000000,   0.01200,
,,,-00.183200000000,   0.01600,
,,,-00.183000000000,   0.01200,
,,,-00.182800000000,   0.01600,
,,,-00.182600000000,   0.02000,
,,,-00.182400000000,   0.01600,
,,,-00.182200000000,   0.00800,
,,,-00.182000000000,   0.01200,
,,,-00.181800000000,   0.00800,
,,,-00.181600000000,   0.00800,
,,,-00.181400000000,   0.01200,
,,,-00.181200000000,   0.00400,
,,,-00.181000000000,   0.00400,
,,,-00.180800000000,   0.01200,
,,,-00.180600000000,   0.00800,
,,,-00.180400000000,   0.01600,
,,,-00.180200000000,   0.01600,
,,,-00.180000000000,   0.00400,
,,,-00.179800000000,   0.01200,
,,,-00.179600000000,   0.00800,
,,,-00.179400000000,   0.00800,
,,,-00.179200000000,   0.01200,
,,,-00.179000000000,   0.00800,
,,,-00.178800000000,   0.01600,
,,,-00.178600000000,   0.01600,
,,,-00.178400000000,   0.01600,
,,,-00.178200000000,   0.01200,
,,,-00.178000000000,   0.01600,
,,,-00.177800000000,   0.01200,
,,,-00.177600000000,   0.01600,
,,,-00.177400000000,   0.01600,
,,,-00.177200000000,   0.01200,
,,,-00.177000000000,   0.00800,
,,,-00.176800000000,   0.01600,
,,,-00.176600000000,   0.01200,
,,,-00.176400000000,   0.01200,
,,,-00.176200000000,   0.00800,
,,,-00.176000000000,   0.00400,
,,,-00.175800000000,   0.01200,
,,,-00.175600000000,   0.01200,
,,,-00.175400000000,   0.00400,
,,,-00.175200000000,   0.00800,
,,,-00.175000000000,   0.01200,
,,,-00.174800000000,   0.01200,
,,,-00.174600000000,   0.00800,
,,,-00.174400000000,   0.01600,
,,,-00.174200000000,   0.01200,
,,,-00.174000000000,   0.01200,
,,,-00.173800000000,   0.01200,
,,,-00.173600000000,   0.02800,
,,,-00.173400000000,   0.01200,
,,,-00.173200000000,   0.00800,
,,,-00.173000000000,   0.02000,
,,,-00.172800000000,   0.01200,
,,,-00.172600000000,   0.00800,
,,,-00.172400000000,   0.01600,
,,,-00.172200000000,   0.00400,
,,,-00.172000000000,   0.00400,
,,,-00.171800000000,   0.01200,
,,,-00.171600000000,   0.01200,
,,,-00.171400000000,   0.00400,
,,,-00.171200000000,   0.00800,
,,,-00.171000000000,   0.01200,
,,,-00.170800000000,   0.01200,
,,,-00.170600000000,   0.01600,
,,,-00.170400000000,   0.01200,
,,,-00.170200000000,   0.02000,
,,,-00.170000000000,   0.01600,
,,,-00.169800000000,   0.01200,
,,,-00.169600000000,   0.02000,
,,,-00.169400000000,   0.01200,
,,,-00.169200000000,   0.02000,
,,,-00.169000000000,   0.00400,
,,,-00.168800000000,   0.01600,
,,,-00.168600000000,   0.01600,
,,,-00.168400000000,   0.02000,
,,,-00.168200000000,   0.00400,
,,,-00.168000000000,   0.00800,
,,,-00.167800000000,   0.01200,
,,,-00.167600000000,   0.01200,
,,,-00.167400000000,   0.00400,
,,,-00.167200000000,   0.00800,
,,,-00.167000000000,   0.02000,
,,,-00.166800000000,   0.01600,
,,,-00.166600000000,   0.01200,
,,,-00.166400000000,   0.02000,
,,,-00.166200000000,   0.01600,
,,,-00.166000000000,   0.01200,
,,,-00.165800000000,   0.01200,
,,,-00.165600000000,   0.01200,
,,,-00.165400000000,   0.02400,
,,,-00.165200000000,   0.00400,
,,,-00.165000000000,   0.01200,
,,,-00.164800000000,   0.00400,
,,,-00.164600000000,   0.00800,
,,,-00.164400000000,   0.01600,
,,,-00.164200000000,   0.01200,
,,,-00.164000000000,   0.03200,
,,,-00.163800000000,   0.12800,
,,,-00.163600000000,   0.17200,
,,,-00.163400000000,   0.16800,
,,,-00.163200000000,   0.23200,
,,,-00.163000000000,   0.19600,
,,,-00.162800000000,   0.21200,
,,,-00.162600000000,   0.16800,
,,,-00.162400000000,   0.16000,
,,,-00.162200000000,   0.16000,
,,,-00.162000000000,   0.18400,
,,,-00.161800000000,   0.07200,
,,,-00.161600000000,   0.02400,
,,,-00.161400000000,   0.01200,
,,,-00.161200000000,   0.02000,
,,,-00.161000000000,   0.02400,
,,,-00.160800000000,   0.00800,
,,,-00.160600000000,   0.02000,
,,,-00.160400000000,   0.00400,
,,,-00.160200000000,   0.01600,
,,,-00.160000000000,   0.00800,
,,,-00.159800000000,   0.00400,
,,,-00.159600000000,   0.01600,
,,,-00.159400000000,   0.00800,
,,,-00.159200000000,   0.01200,
,,,-00.159000000000,   0.00800,
,,,-00.158800000000,   0.01200,
,,,-00.158600000000,   0.01600,
,,,-00.158400000000,   0.00400,
,,,-00.158200000000,   0.01200,
,,,-00.158000000000,   0.00400,
,,,-00.157800000000,   0.00400,
,,,-00.157600000000,   0.01200,
,,,-00.157400000000,   0.01600,
,,,-00.157200000000,   0.01200,
,,,-00.157000000000,   0.01600,
,,,-00.156800000000,   0.01600,
,,,-00.156600000000,   0.01600,
,,,-00.156400000000,   0.01200,
,,,-00.156200000000,   0.02000,
,,,-00.156000000000,   0.00800,
,,,-00.155800000000,   0.00800,
,,,-00.155600000000,   0.01600,
,,,-00.155400000000,   0.01200,
,,,-00.155200000000,   0.00800,
,,,-00.155000000000,   0.01600,
,,,-00.154800000000,   0.01200,
,,,-00.154600000000,   0.00800,
,,,-00.154400000000,   0.01200,
,,,-00.154200000000,   0.00400,
,,,-00.154000000000,   0.01600,
,,,-00.153800000000,   0.01200,
,,,-00.153600000000,   0.01200,
,,,-00.153400000000,   0.01200,
,,,-00.153200000000,   0.00800,
,,,-00.153000000000,   0.01600,
,,,-00.152800000000,   0.01600,
,,,-00.152600000000,   0.01600,
,,,-00.152400000000,   0.00800,
,,,-00.152200000000,   0.01600,
,,,-00.152000000000,   0.01600,
,,,-00.151800000000,   0.01200,
,,,-00.151600000000,   0.00800,
,,,-00.151400000000,   0.01200,
,,,-00.151200000000,   0.00800,
,,,-00.151000000000,   0.00800,
,,,-00.150800000000,   0.01200,
,,,-00.150600000000,   0.01200,
,,,-00.150400000000,   0.00800,
,,,-00.150200000000,   0.02000,
,,,-00.150000000000,   0.01200,
,,,-00.149800000000,   0.01200,
,,,-00.149600000000,   0.00400,
,,,-00.149400000000,   0.00800,
,,,-00.149200000000,   0.00400,
,,,-00.149000000000,   0.01600,
,,,-00.148800000000,   0.00800,
,,,-00.148600000000,   0.01200,
,,,-00.148400000000,   0.00800,
,,,-00.148200000000,   0.01200,
,,,-00.148000000000,   0.00400,
,,,-00.147800000000,   0.00800,
,,,-00.147600000000,   0.00800,
,,,-00.147400000000,   0.01200,
,,,-00.147200000000,   0.01600,
,,,-00.147000000000,   0.01600,
,,,-00.146800000000,   0.01200,
,,,-00.146600000000,   0.01600,
,,,-00.146400000000,   0.01200,
,,,-00.146200000000,   0.00400,
,,,-00.146000000000,   0.00400,
,,,-00.145800000000,   0.01600,
,,,-00.145600000000,   0.00800,
,,,-00.145400000000,   0.01200,
,,,-00.145200000000,   0.00400,
,,,-00.145000000000,   0.00400,
,,,-00.144800000000,   0.01200,
,,,-00.144600000000,   0.01200,
,,,-00.144400000000,   0.01200,
,,,-00.144200000000,   0.01200,
,,,-00.144000000000,   0.01200,
,,,-00.143800000000,   0.00800,
,,,-00.143600000000,   0.02000,
,,,-00.143400000000,   0.02000,
,,,-00.143200000000,   0.01600,
,,,-00.143000000000,   0.02000,
,,,-00.142800000000,   0.01600,
,,,-00.142600000000,   0.00800,
,,,-00.142400000000,   0.01200,
,,,-00.142200000000,   0.00400,
,,,-00.142000000000,   0.00800,
,,,-00.141800000000,   0.00800,
,,,-00.141600000000,   0.01200,
,,,-00.141400000000,   0.01600,
,,,-00.141200000000,   0.01200,
,,,-00.141000000000,   0.01200,
,,,-00.140800000000,   0.01200,
,,,-00.140600000000,   0.01600,
,,,-00.140400000000,   0.00800,
,,,-00.140200000000,   0.01200,
,,,-00.140000000000,   0.01600,
,,,-00.139800000000,   0.01200,
,,,-00.139600000000,   0.01200,
,,,-00.139400000000,   0.01600,
,,,-00.139200000000,   0.01600,
,,,-00.139000000000,   0.01200,
,,,-00.138800000000,   0.01600,
,,,-00.138600000000,   0.01200,
,,,-00.138400000000,   0.00800,
,,,-00.138200000000,   0.01200,
,,,-00.138000000000,   0.01600,
,,,-00.137800000000,   0.00400,
,,,-00.137600000000,   0.00800,
,,,-00.137400000000,   0.00800,
,,,-00.137200000000,   0.00800,
,,,-00.137000000000,   0.01600,
,,,-00.136800000000,   0.01200,
,,,-00.136600000000,   0.02000,
,,,-00.136400000000,   0.01600,
,,,-00.136200000000,   0.02000,
,,,-00.136000000000,   0.00400,
,,,-00.135800000000,   0.01600,
,,,-00.135600000000,   0.00800,
,,,-00.135400000000,   0.02000,
,,,-00.135200000000,   0.00800,
,,,-00.135000000000,   0.01600,
,,,-00.134800000000,   0.00000,
,,,-00.134600000000,   0.00800,
,,,-00.134400000000,   0.02000,
,,,-00.134200000000,   0.02000,
,,,-00.134000000000,   0.00800,
,,,-00.133800000000,   0.01200,
,,,-00.133600000000,   0.01600,
,,,-00.133400000000,   0.00800,
,,,-00.133200000000,   0.02400,
,,,-00.133000000000,   0.00800,
,,,-00.132800000000,   0.00400,
,,,-00.132600000000,   0.00800,
,,,-00.132400000000,   0.01600,
,,,-00.132200000000,   0.01600,
,,,-00.132000000000,   0.00400,
,,,-00.131800000000,   0.01200,
,,,-00.131600000000,   0.00400,
,,,-00.131400000000,   0.01200,
